…
## Data Prep

``` r
tbsp_recipe <- recipe(TB ~ ., data = tbsp_train |> 
                        select(-id, -cod_mun)
                      ) |> 
  step_normalize(all_numeric_predictors())  |> 
  step_novel(all_nominal_predictors()) |> 
  step_zv(all_predictors()) |> 
  # step_poly(c(n_vacas, prod_diaria), degree = 9)  |> 
  step_dummy(all_nominal_predictors())

bake(prep(tbsp_recipe), new_data = NULL)
#> # A tibble: 1,307 x 38
#>    reb_ma_19 tipo_exp tipo_cria n_ordenha tipo_ordenha n_vacas prod_diaria
#>        <dbl>    <dbl>     <dbl>     <dbl>        <dbl>   <dbl>       <dbl>
#>  1     1.56    -1.15     -0.387    -1.12        -1.20  -0.487      -0.348 
#>  2    -0.639   -1.15     -0.387    -1.12        -1.20  -0.487      -0.348 
#>  3    -0.639   -1.15     -0.387    -1.12        -1.20  -0.487      -0.348 
#>  4    -0.639   -1.15     -0.387    -1.12        -1.20  -0.487      -0.348 
#>  5    -0.639    1.37     -0.387     0.533        0.888 -0.0940     -0.299 
#>  6    -0.639    1.37     -0.387     0.533        0.888 -0.389      -0.299 
#>  7    -0.639   -1.15     -0.387    -1.12        -1.20  -0.487      -0.348 
#>  8     1.56     0.109    -0.387     2.18         0.888  1.48        1.12  
#>  9     1.56     0.109    -0.387     0.533        0.888  0.988       0.241 
#> 10    -0.639    0.109    -0.387     0.533        0.888  0.103       0.0449
#> # ... with 1,297 more rows, and 31 more variables: inseminacao <dbl>,
#> #   raca_bov <dbl>, ovi_cap <dbl>, equi <dbl>, sui <dbl>, aves <dbl>,
#> #   cao <dbl>, gato <dbl>, nsilvestre <dbl>, cervideo <dbl>, capivara <dbl>,
#> #   felideos <dbl>, marsu <dbl>, macaco <dbl>, outra_silv <dbl>,
#> #   testa_tb <dbl>, regul_test_tb <dbl>, aquis_bovideos <dbl>,
#> #   aluga_pasto <dbl>, pasto_comum <dbl>, comp_itens <dbl>,
#> #   areas_alagadas <dbl>, gado_conc <dbl>, piquete_parto <dbl>, ...
…
``` r
collect_metrics(tbsp_lr_tune_grid)
#> # A tibble: 80 x 7
#>     penalty .metric     .estimator  mean     n std_err .config              
#>       <dbl> <chr>       <chr>      <dbl> <int>   <dbl> <chr>                
#>  1 0.0001   accuracy    binary     0.895     5 0.00664 Preprocessor1_Model01
#>  2 0.0001   mn_log_loss binary     0.319     5 0.0157  Preprocessor1_Model01
#>  3 0.0001   precision   binary     0.903     5 0.00612 Preprocessor1_Model01
#>  4 0.0001   roc_auc     binary     0.645     5 0.0204  Preprocessor1_Model01
#>  5 0.000127 accuracy    binary     0.895     5 0.00664 Preprocessor1_Model02
#>  6 0.000127 mn_log_loss binary     0.319     5 0.0157  Preprocessor1_Model02
#>  7 0.000127 precision   binary     0.903     5 0.00612 Preprocessor1_Model02
#>  8 0.000127 roc_auc     binary     0.645     5 0.0204  Preprocessor1_Model02
#>  9 0.000162 accuracy    binary     0.895     5 0.00664 Preprocessor1_Model03
#> 10 0.000162 mn_log_loss binary     0.319     5 0.0157  Preprocessor1_Model03
#> # ... with 70 more rows
…
